<svg width="16" height="14" viewBox="0 0 16 14" fill="none" xmlns="http://www.w3.org/2000/svg">
<path d="M4.86961 0.599976C2.62573 0.599976 0.800049 2.50963 0.800049 4.85672C0.800049 9.69032 6.02641 12.0758 7.8044 13.626L8.00005 13.8L8.1957 13.626C9.97369 12.0758 15.2001 9.69032 15.2001 4.85672C15.2001 2.50963 13.3744 0.599976 11.1305 0.599976C9.86119 0.599976 8.74597 1.23056 8.00005 2.18602C7.25413 1.23056 6.13891 0.599976 4.86961 0.599976ZM4.86961 1.25486C6.07043 1.25486 7.11961 1.89951 7.73592 2.8716L8.00005 3.28091L8.26418 2.8716C8.88048 1.89951 9.92967 1.25486 11.1305 1.25486C13.0356 1.25486 14.574 2.86393 14.574 4.85672C14.574 9.08021 10.0642 11.2661 8.00005 12.9711C5.93592 11.2661 1.42614 9.08021 1.42614 4.85672C1.42614 2.86393 2.96445 1.25486 4.86961 1.25486Z" fill="#6A5C37"/>
</svg>
