<svg width="22" height="22" viewBox="0 0 22 22" fill="none" xmlns="http://www.w3.org/2000/svg">
<path d="M0.830684 0C0.816362 0.00358096 0.80204 0.00895171 0.787718 0.0143229C0.341941 0.0769858 0 0.454753 0 0.916667C0 1.42334 0.409971 1.83333 0.916617 1.83333C1.42326 1.83333 1.83323 1.42334 1.83323 0.916667H3.96723C4.53833 0.916667 4.83551 1.03483 5.05572 1.23177C5.27234 1.42692 5.44778 1.75635 5.59996 2.26302L9.26643 17.0586C9.40428 17.5832 9.54213 18.1239 9.92524 18.5625C10.0846 18.7451 10.2851 18.8937 10.5268 19.0065C10.2582 19.3252 10.0828 19.7209 10.0828 20.1667C10.0828 21.1746 10.9081 22 11.916 22C12.9239 22 13.7493 21.1746 13.7493 20.1667C13.7493 19.8301 13.6508 19.5221 13.4915 19.25H16.2986C16.1393 19.5221 16.0408 19.8301 16.0408 20.1667C16.0408 21.1746 16.8661 22 17.874 22C18.882 22 19.7073 21.1746 19.7073 20.1667C19.7073 19.6958 19.5157 19.2751 19.2203 18.9492C19.2722 18.8096 19.2507 18.652 19.1666 18.5303C19.0807 18.4067 18.941 18.3333 18.7906 18.3333H11.7871C11.08 18.3333 10.7917 18.1829 10.5984 17.9609C10.4068 17.7407 10.2905 17.3558 10.1544 16.8438V16.8294L9.83931 15.5833H18.2464C18.438 15.5833 18.6116 15.4634 18.6761 15.2826L21.9702 6.57422C22.0239 6.43457 22.0042 6.27702 21.9182 6.15348C21.8323 6.02995 21.6909 5.95654 21.5405 5.95833H7.46184L6.48793 2.04818C6.48793 2.03923 6.48793 2.02848 6.48793 2.01953C6.31248 1.42871 6.08512 0.916667 5.67157 0.544271C5.25802 0.171875 4.67618 0 3.96723 0H0.916617C0.902295 0 0.887973 0 0.873651 0C0.859328 0 0.845006 0 0.830684 0ZM7.69099 6.875H20.8817L17.9313 14.6667H9.62448L7.69099 6.875ZM11.916 19.25C12.428 19.25 12.8326 19.6546 12.8326 20.1667C12.8326 20.6787 12.428 21.0833 11.916 21.0833C11.404 21.0833 10.9994 20.6787 10.9994 20.1667C10.9994 19.6546 11.404 19.25 11.916 19.25ZM17.874 19.25C18.386 19.25 18.7906 19.6546 18.7906 20.1667C18.7906 20.6787 18.386 21.0833 17.874 21.0833C17.362 21.0833 16.9574 20.6787 16.9574 20.1667C16.9574 19.6546 17.362 19.25 17.874 19.25Z" fill="#6A5C37"/>
</svg>
